{
    "app-id": "io.posidon.Paper",
    "runtime": "org.gnome.Platform",
    "runtime-version": "42",
    "sdk": "org.gnome.Sdk",
    "command": "io.posidon.Paper",
    "finish-args": [
        "--share=ipc",
        "--socket=fallback-x11",
        "--device=dri",
        "--socket=wayland"
    ],
    "cleanup": [
        "/include",
        "/lib/pkgconfig",
        "/man",
        "/share/doc",
        "/share/gtk-doc",
        "/share/man",
        "/share/pkgconfig",
        "/share/vala",
        "*.la",
        "*.a"
    ],
    "modules": [
        {
            "name": "Paper",
            "builddir": true,
            "buildsystem": "meson",
            "sources": [{
                "type": "git",
                "url": "https://gitlab.com/posidon_software/paper",
                "tag": "22.3"
            }]
        }
    ]
}
